This is TeX, Version 3.14159265 (TeX Live 2017/Arch Linux) (preloaded format=tex 2018.1.3)  5 JAN 2018 02:38
**biblio.bib
(./biblio.bib
Missing character: There is no ^^e2 in font cmr10!
Missing character: There is no ^^80 in font cmr10!
Missing character: There is no ^^93 in font cmr10!
Missing character: There is no ^^e2 in font cmr10!
Missing character: There is no ^^80 in font cmr10!
Missing character: There is no ^^93 in font cmr10!

Underfull \vbox (badness 10000) has occurred while \output is active
\vbox(643.20255+1.94444)x469.75499, glue set 4.60127
.\glue(\topskip) 3.05556
.\hbox(6.94444+1.94444)x469.75499, glue set 0.04341
..\hbox(0.0+0.0)x20.0
..\tenrm @
..\tenrm I
..\tenrm N
..\tenrm P
..etc.
.\penalty 150
.\glue(\baselineskip) 2.55556
.\hbox(7.5+2.5)x469.75499, glue set 0.3442
..\tenrm S
..\tenrm p
..\tenrm a
..\tenrm c
..\tenrm e
..etc.
.etc.

 [1]
Missing character: There is no ^^c3 in font cmr10!
Missing character: There is no ^^a9 in font cmr10!
Missing character: There is no ^^e2 in font cmr10!
Missing character: There is no ^^80 in font cmr10!
Missing character: There is no ^^9c in font cmr10!
Missing character: There is no ^^e2 in font cmr10!
Missing character: There is no ^^80 in font cmr10!
Missing character: There is no ^^9d in font cmr10!
Missing character: There is no ^^c2 in font cmr10!
Missing character: There is no ^^a9 in font cmr10!

! Undefined control sequence.
l.94   file = {Full Text PDF:C:\Users
                                     \srfiorini\AppData\Roaming\Mozilla\Fire...

? 
! Undefined control sequence.
l.94   file = {Full Text PDF:C:\Users\srfiorini
                                               \AppData\Roaming\Mozilla\Fire...

? 
! Undefined control sequence.
l.94 ... {Full Text PDF:C:\Users\srfiorini\AppData
                                                  \Roaming\Mozilla\Firefox\P...

? 
! Undefined control sequence.
l.94 ...ext PDF:C:\Users\srfiorini\AppData\Roaming
                                                  \Mozilla\Firefox\Profiles\...

? 
! Undefined control sequence.
l.94 ...C:\Users\srfiorini\AppData\Roaming\Mozilla
                                                  \Firefox\Profiles\xeab1w7g...

? 
! Undefined control sequence.
l.94 ...\srfiorini\AppData\Roaming\Mozilla\Firefox
                                                  \Profiles\xeab1w7g.default...

? 
! Undefined control sequence.
l.94 ...i\AppData\Roaming\Mozilla\Firefox\Profiles
                                                  \xeab1w7g.default\zotero\s...

? 
! Undefined control sequence.
l.94 ...Data\Roaming\Mozilla\Firefox\Profiles\xeab
                                                  1w7g.default\zotero\storag...

? 
! Undefined control sequence.
l.94 ...a\Firefox\Profiles\xeab1w7g.default\zotero
                                                  \storage\7FB3HCBH\Aisbett ...

? 
! Undefined control sequence.
l.94 ...x\Profiles\xeab1w7g.default\zotero\storage
                                                  \7FB3HCBH\Aisbett e Gibbon...

? 
! Undefined control sequence.
l.94 ...Profiles\xeab1w7g.default\zotero\storage\7
                                                  FB3HCBH\Aisbett e Gibbon -...

? 
! Undefined control sequence.
l.94 ...7g.default\zotero\storage\7FB3HCBH\Aisbett
                                                   e Gibbon - 2001 - Concept...

? 
! Undefined control sequence.
l.94 ...Maps.pdf:application/pdf;Snapshot:C:\Users
                                                  \srfiorini\AppData\Roaming...

? 
! Undefined control sequence.
l.94 ...pplication/pdf;Snapshot:C:\Users\srfiorini
                                                  \AppData\Roaming\Mozilla\F...

? 
! Undefined control sequence.
l.94 ...on/pdf;Snapshot:C:\Users\srfiorini\AppData
                                                  \Roaming\Mozilla\Firefox\P...

? 
! Undefined control sequence.
l.94 ...napshot:C:\Users\srfiorini\AppData\Roaming
                                                  \Mozilla\Firefox\Profiles\...

? 
! Undefined control sequence.
l.94 ...C:\Users\srfiorini\AppData\Roaming\Mozilla
                                                  \Firefox\Profiles\xeab1w7g...

? 
! Undefined control sequence.
l.94 ...\srfiorini\AppData\Roaming\Mozilla\Firefox
                                                  \Profiles\xeab1w7g.default...

? 
! Undefined control sequence.
l.94 ...i\AppData\Roaming\Mozilla\Firefox\Profiles
                                                  \xeab1w7g.default\zotero\s...

? 
! Undefined control sequence.
l.94 ...Data\Roaming\Mozilla\Firefox\Profiles\xeab
                                                  1w7g.default\zotero\storag...

? 
! Undefined control sequence.
l.94 ...a\Firefox\Profiles\xeab1w7g.default\zotero
                                                  \storage\ZK2HK4AV\3-540-45...

? 
! Undefined control sequence.
l.94 ...x\Profiles\xeab1w7g.default\zotero\storage
                                                  \ZK2HK4AV\3-540-45720-8_94...

? 
! Undefined control sequence.
l.94 ...rofiles\xeab1w7g.default\zotero\storage\ZK
                                                  2HK4AV\3-540-45720-8_94.ht...

? 
! Undefined control sequence.
l.94 ...xeab1w7g.default\zotero\storage\ZK2HK4AV\3
                                                  -540-45720-8_94.html:text/...

? 
! Missing $ inserted.
<inserted text> 
                $
<to be read again> 
                   _
l.94 ...ult\zotero\storage\ZK2HK4AV\3-540-45720-8_
                                                  94.html:text/html},
? 
! Extra }, or forgotten $.
l.94 ...\ZK2HK4AV\3-540-45720-8_94.html:text/html}
                                                  ,
? 
! Extra }, or forgotten $.
l.102 }
       
? 
! Missing $ inserted.
<inserted text> 
                $
<to be read again> 
                   \par 
l.103 
      
? 

Overfull \hbox (464.25659pt too wide) in paragraph at lines 80--103
\teni text=html; keywords \tenrm = []\teni ; language \tenrm =|

\hbox(7.5+2.5)x469.75499
.\teni t
.\teni e
.\teni x
.\teni t
.\teni =
.etc.

Missing character: There is no ^^e2 in font cmr10!
Missing character: There is no ^^80 in font cmr10!
Missing character: There is no ^^93 in font cmr10!
Missing character: There is no ^^c3 in font cmr10!
Missing character: There is no ^^a4 in font cmr10!
Missing character: There is no ^^c3 in font cmr10!
Missing character: There is no ^^a4 in font cmr10!
Missing character: There is no ^^e2 in font cmr10!
Missing character: There is no ^^80 in font cmr10!
Missing character: There is no ^^93 in font cmr10!
[2]
Missing character: There is no ^^e2 in font cmr10!
Missing character: There is no ^^80 in font cmr10!
Missing character: There is no ^^99 in font cmr10!
Missing character: There is no ^^e2 in font cmr10!
Missing character: There is no ^^80 in font cmr10!
Missing character: There is no ^^93 in font cmr10!
Missing character: There is no ^^e2 in font cmr10!
Missing character: There is no ^^80 in font cmr10!
Missing character: There is no ^^99 in font cmr10!
Missing character: There is no ^^e2 in font cmr10!
Missing character: There is no ^^80 in font cmr10!
Missing character: There is no ^^99 in font cmr10!
Missing character: There is no ^^e2 in font cmr10!
Missing character: There is no ^^80 in font cmr10!
Missing character: There is no ^^99 in font cmr10!
Missing character: There is no ^^e2 in font cmr10!
Missing character: There is no ^^80 in font cmr10!
Missing character: There is no ^^99 in font cmr10!
Missing character: There is no ^^e2 in font cmr10!
Missing character: There is no ^^80 in font cmr10!
Missing character: There is no ^^99 in font cmr10!
Missing character: There is no ^^e2 in font cmr10!
Missing character: There is no ^^80 in font cmr10!
Missing character: There is no ^^99 in font cmr10!
Missing character: There is no ^^e2 in font cmr10!
Missing character: There is no ^^80 in font cmr10!
Missing character: There is no ^^93 in font cmr10!
Missing character: There is no ^^e2 in font cmr10!
Missing character: There is no ^^80 in font cmr10!
Missing character: There is no ^^99 in font cmr10!
Missing character: There is no ^^e2 in font cmr10!
Missing character: There is no ^^80 in font cmr10!
Missing character: There is no ^^99 in font cmr10!
 [3]
Missing character: There is no ^^e2 in font cmr10!
Missing character: There is no ^^80 in font cmr10!
Missing character: There is no ^^93 in font cmr10!
Missing character: There is no ^^e2 in font cmr10!
Missing character: There is no ^^80 in font cmr10!
Missing character: There is no ^^94 in font cmr10!
Missing character: There is no ^^e2 in font cmr10!
Missing character: There is no ^^80 in font cmr10!
Missing character: There is no ^^94 in font cmr10!
Missing character: There is no ^^c2 in font cmr10!
Missing character: There is no ^^a9 in font cmr10!

! Undefined control sequence.
l.342 ...idence from integrative agnosia.:C:\Users
                                                  \srfiorini\AppData\Roaming...

? 
! Undefined control sequence.
l.342 ...m integrative agnosia.:C:\Users\srfiorini
                                                  \AppData\Roaming\Mozilla\F...

? 
! Undefined control sequence.
l.342 ...ative agnosia.:C:\Users\srfiorini\AppData
                                                  \Roaming\Mozilla\Firefox\P...

? 
! Undefined control sequence.
l.342 ...nosia.:C:\Users\srfiorini\AppData\Roaming
                                                  \Mozilla\Firefox\Profiles\...

? 
! Undefined control sequence.
l.342 ...:\Users\srfiorini\AppData\Roaming\Mozilla
                                                  \Firefox\Profiles\cag90s3o...

? 
! Undefined control sequence.
l.342 ...srfiorini\AppData\Roaming\Mozilla\Firefox
                                                  \Profiles\cag90s3o.default...

? 
! Undefined control sequence.
l.342 ...\AppData\Roaming\Mozilla\Firefox\Profiles
                                                  \cag90s3o.default\zotero\s...

? 
! Undefined control sequence.
l.342 ...Data\Roaming\Mozilla\Firefox\Profiles\cag
                                                  90s3o.default\zotero\stora...

? 
! Undefined control sequence.
l.342 ...\Firefox\Profiles\cag90s3o.default\zotero
                                                  \storage\8R8T5IRW\1169.htm...

? 
! Undefined control sequence.
l.342 ...\Profiles\cag90s3o.default\zotero\storage
                                                  \8R8T5IRW\1169.html:text/h...

? 
! Undefined control sequence.
l.342 ...rofiles\cag90s3o.default\zotero\storage\8
                                                  R8T5IRW\1169.html:text/html},

? 
! Undefined control sequence.
l.342 ...ag90s3o.default\zotero\storage\8R8T5IRW\1
                                                  169.html:text/html},
? 
Missing character: There is no ^^e2 in font cmr10!
Missing character: There is no ^^80 in font cmr10!
Missing character: There is no ^^93 in font cmr10!
Missing character: There is no ^^c3 in font cmr10!
Missing character: There is no ^^a9 in font cmr10!
! Missing $ inserted.
<inserted text> 
                $
<to be read again> 
                   _
l.373   doi = {10.1007/978-3-642-01347-8_
                                         44},
? 
! Extra }, or forgotten $.
l.373   doi = {10.1007/978-3-642-01347-8_44}
                                            ,
? 
! Extra }, or forgotten $.
l.377 }
       
? 
! Missing $ inserted.
<inserted text> 
                $
<to be read again> 
                   \par 
l.378 
      
? 

Overfull \hbox (55.24626pt too wide) in paragraph at lines 363--378
\tenrm pages = 528-538, doi = 10.1007/978-3-642-01347-8$[]4\teni ; keywords \te
nrm = []\teni ; owner \tenrm =|

\hbox(7.5+2.5)x469.75499, glue set - 1.0
.\tenrm p
.\tenrm a
.\tenrm g
.\tenrm e
.\tenrm s
.etc.

[4]
Overfull \hbox (5.66263pt too wide) in paragraph at lines 379--392
[]\tenrm @ARTICLEBiederman1987Recognition, au-thor = Bie-der-man, Irv-ing, ti-t
le = Recognition-by-components:|

\hbox(6.94444+1.94444)x469.75499, glue set - 1.0
.\hbox(0.0+0.0)x20.0
.\tenrm @
.\tenrm A
.\tenrm R
.\kern-0.83334
.etc.


Overfull \hbox (29.94054pt too wide) in paragraph at lines 406--418
\tenrm ences , year = 2006, vol-ume = 10, pages = 159 - 166, num-ber = 4, doi =
 http://dx.doi.org/10.1016/j.tics.2006.02.004,|

\hbox(7.5+2.5)x469.75499, glue set - 1.0
.\tenrm e
.\tenrm n
.\tenrm c
.\tenrm e
.\tenrm s
.etc.


Overfull \hbox (33.24608pt too wide) in paragraph at lines 419--441
\tenrm tems;Ontologies;Pattern match-ing;Visualization;Knowledge En-gi-neer-ing
;Knowledge Rep-re-sen-ta-tion;Ontology;Visual|

\hbox(6.94444+1.94444)x469.75499, glue set - 1.0
.\tenrm t
.\tenrm e
.\tenrm m
.\tenrm s
.\tenrm ;
.etc.

Missing character: There is no ^^e2 in font cmr10!
Missing character: There is no ^^80 in font cmr10!
Missing character: There is no ^^93 in font cmr10!
Missing character: There is no ^^e2 in font cmr10!
Missing character: There is no ^^80 in font cmr10!
Missing character: There is no ^^99 in font cmr10!
Missing character: There is no ^^e2 in font cmr10!
Missing character: There is no ^^80 in font cmr10!
Missing character: There is no ^^af in font cmr10!
Missing character: There is no ^^e2 in font cmr10!
Missing character: There is no ^^80 in font cmr10!
Missing character: There is no ^^af in font cmr10!
Missing character: There is no ^^e2 in font cmr10!
Missing character: There is no ^^80 in font cmr10!
Missing character: There is no ^^af in font cmr10!
! Undefined control sequence.
l.484 ...framework for imitation learning:C:\Users
                                                  \Sandro\AppData\Roaming\Mo...

? 
! Undefined control sequence.
l.484 ...rk for imitation learning:C:\Users\Sandro
                                                  \AppData\Roaming\Mozilla\F...

? 
! Undefined control sequence.
l.484 ...mitation learning:C:\Users\Sandro\AppData
                                                  \Roaming\Mozilla\Firefox\P...

? 
! Undefined control sequence.
l.484 ... learning:C:\Users\Sandro\AppData\Roaming
                                                  \Mozilla\Firefox\Profiles\...

? 
! Undefined control sequence.
l.484 ...g:C:\Users\Sandro\AppData\Roaming\Mozilla
                                                  \Firefox\Profiles\61qoc5gj...

? 
! Undefined control sequence.
l.484 ...rs\Sandro\AppData\Roaming\Mozilla\Firefox
                                                  \Profiles\61qoc5gj.default...

? 
! Undefined control sequence.
l.484 ...\AppData\Roaming\Mozilla\Firefox\Profiles
                                                  \61qoc5gj.default\zotero\s...

? 
! Undefined control sequence.
l.484 ...ppData\Roaming\Mozilla\Firefox\Profiles\6
                                                  1qoc5gj.default\zotero\sto...

? 
! Undefined control sequence.
l.484 ...\Firefox\Profiles\61qoc5gj.default\zotero
                                                  \storage\DBS3BK3T\S0921889...

? 
! Undefined control sequence.
l.484 ...\Profiles\61qoc5gj.default\zotero\storage
                                                  \DBS3BK3T\S092188900600020...

? 
! Undefined control sequence.
l.484 ...files\61qoc5gj.default\zotero\storage\DBS
                                                  3BK3T\S0921889006000200.ht...

? 
[5]
Missing character: There is no ^^e2 in font cmr10!
Missing character: There is no ^^80 in font cmr10!
Missing character: There is no ^^93 in font cmr10!
Missing character: There is no ^^c3 in font cmr10!
Missing character: There is no ^^b5 in font cmr10!
Missing character: There is no ^^c3 in font cmr10!
Missing character: There is no ^^aa in font cmr10!
Missing character: There is no ^^c3 in font cmr10!
Missing character: There is no ^^ad in font cmr10!
Missing character: There is no ^^c3 in font cmr10!
Missing character: There is no ^^a3 in font cmr10!
Missing character: There is no ^^c3 in font cmr10!
Missing character: There is no ^^aa in font cmr10!
Missing character: There is no ^^c3 in font cmr10!
Missing character: There is no ^^ad in font cmr10!
Missing character: There is no ^^c3 in font cmr10!
Missing character: There is no ^^a3 in font cmr10!
Missing character: There is no ^^c3 in font cmr10!
Missing character: There is no ^^b3 in font cmr10!
Missing character: There is no ^^c3 in font cmr10!
Missing character: There is no ^^a3 in font cmr10!
Missing character: There is no ^^c3 in font cmr10!
Missing character: There is no ^^b3 in font cmr10!
Missing character: There is no ^^c3 in font cmr10!
Missing character: There is no ^^ad in font cmr10!
Missing character: There is no ^^c3 in font cmr10!
Missing character: There is no ^^a7 in font cmr10!
Missing character: There is no ^^c3 in font cmr10!
Missing character: There is no ^^b5 in font cmr10!
Missing character: There is no ^^c3 in font cmr10!
Missing character: There is no ^^bc in font cmr10!
Missing character: There is no ^^c3 in font cmr10!
Missing character: There is no ^^ad in font cmr10!
Missing character: There is no ^^c3 in font cmr10!
Missing character: There is no ^^ad in font cmr10!
Missing character: There is no ^^c3 in font cmr10!
Missing character: There is no ^^b3 in font cmr10!
Missing character: There is no ^^c3 in font cmr10!
Missing character: There is no ^^ad in font cmr10!
Missing character: There is no ^^c3 in font cmr10!
Missing character: There is no ^^a7 in font cmr10!
Missing character: There is no ^^c3 in font cmr10!
Missing character: There is no ^^b5 in font cmr10!
Missing character: There is no ^^c3 in font cmr10!
Missing character: There is no ^^a3 in font cmr10!
Missing character: There is no ^^c3 in font cmr10!
Missing character: There is no ^^ad in font cmr10!
Missing character: There is no ^^c3 in font cmr10!
Missing character: There is no ^^a9 in font cmr10!
Missing character: There is no ^^c3 in font cmr10!
Missing character: There is no ^^a7 in font cmr10!
Missing character: There is no ^^c3 in font cmr10!
Missing character: There is no ^^b5 in font cmr10!
Missing character: There is no ^^c3 in font cmr10!
Missing character: There is no ^^ad in font cmr10!
Missing character: There is no ^^c3 in font cmr10!
Missing character: There is no ^^a9 in font cmr10!
Missing character: There is no ^^c3 in font cmr10!
Missing character: There is no ^^a7 in font cmr10!
Missing character: There is no ^^c3 in font cmr10!
Missing character: There is no ^^a3 in font cmr10!
Missing character: There is no ^^c3 in font cmr10!
Missing character: There is no ^^a7 in font cmr10!
Missing character: There is no ^^c3 in font cmr10!
Missing character: There is no ^^a3 in font cmr10!
Missing character: There is no ^^c3 in font cmr10!
Missing character: There is no ^^ad in font cmr10!
Missing character: There is no ^^c3 in font cmr10!
Missing character: There is no ^^a9 in font cmr10!
Missing character: There is no ^^c3 in font cmr10!
Missing character: There is no ^^ad in font cmr10!
Missing character: There is no ^^c3 in font cmr10!
Missing character: There is no ^^a7 in font cmr10!
Missing character: There is no ^^c3 in font cmr10!
Missing character: There is no ^^a1 in font cmr10!
Missing character: There is no ^^c3 in font cmr10!
Missing character: There is no ^^ad in font cmr10!
Missing character: There is no ^^c3 in font cmr10!
Missing character: There is no ^^ad in font cmr10!
Missing character: There is no ^^c3 in font cmr10!
Missing character: There is no ^^bc in font cmr10!
Missing character: There is no ^^c3 in font cmr10!
Missing character: There is no ^^ad in font cmr10!
Missing character: There is no ^^c3 in font cmr10!
Missing character: There is no ^^a1 in font cmr10!
Missing character: There is no ^^e2 in font cmr10!
Missing character: There is no ^^80 in font cmr10!
Missing character: There is no ^^93 in font cmr10!

Underfull \vbox (badness 1215) has occurred while \output is active
\vbox(643.20255+1.94444)x469.75499, glue set 2.30064
.\glue(\topskip) 3.05556
.\hbox(6.94444+1.94444)x469.75499, glue set - 0.34773
..\tenrm a
..\tenrm n
..\discretionary
...\tenrm -
..\tenrm c
..\kern-0.27779
..etc.
.\glue(\baselineskip) 3.11111
.\hbox(6.94444+1.94444)x469.75499, glue set 0.15605
..\tenrm c
..\tenrm a
..\tenrm l
..\discretionary
...\tenrm -
..\tenrm c
..etc.
.\glue(\baselineskip) 3.11111
.etc.

 [6]
Missing character: There is no ^^e2 in font cmr10!
Missing character: There is no ^^80 in font cmr10!
Missing character: There is no ^^93 in font cmr10!

Underfull \vbox (badness 2884) has occurred while \output is active
\vbox(643.20255+1.94444)x469.75499, glue set 3.06752
.\glue(\topskip) 3.05556
.\hbox(6.94444+1.94444)x469.75499, glue set 0.37352
..\tenrm c
..\tenrm o
..\tenrm n
..\tenrm f
..\tenrm e
..etc.
.\glue(\baselineskip) 3.11111
.\hbox(6.94444+1.94444)x469.75499, glue set - 0.27147
..\tenrm p
..\kern0.27779
..\tenrm e
..\tenrm r
..\discretionary
...\tenrm -
..etc.
.\glue(\baselineskip) 3.11111
.etc.

 [7]
! Missing $ inserted.
<inserted text> 
                $
<to be read again> 
                   _
l.676   doi = {10.1007/11556114_
                                12},
? 
! Extra }, or forgotten $.
l.676   doi = {10.1007/11556114_12}
                                   ,
? 
! Extra }, or forgotten $.
l.680 }
       
? 
! Missing $ inserted.
<inserted text> 
                $
<to be read again> 
                   \par 
l.681 
      
? 
Missing character: There is no ^^e2 in font cmr10!
Missing character: There is no ^^80 in font cmr10!
Missing character: There is no ^^93 in font cmr10!
Missing character: There is no ^^e2 in font cmr10!
Missing character: There is no ^^80 in font cmr10!
Missing character: There is no ^^9c in font cmr10!
Missing character: There is no ^^e2 in font cmr10!
Missing character: There is no ^^80 in font cmr10!
Missing character: There is no ^^9d in font cmr10!
! Misplaced alignment tab character &.
l.701 ^^I(Doumas, Hummel, &
                            Sandhofer, 2008), a model of the discovery of
? 
Missing character: There is no ^^e2 in font cmr10!
Missing character: There is no ^^80 in font cmr10!
Missing character: There is no ^^94 in font cmr10!
Missing character: There is no ^^e2 in font cmr10!
Missing character: There is no ^^80 in font cmr10!
Missing character: There is no ^^94 in font cmr10!
Missing character: There is no ^^c2 in font cmr10!
Missing character: There is no ^^a9 in font cmr10!
! Undefined control sequence.
l.727   file = {Snapshot:C:\Users
                                 \srfiorini\AppData\Roaming\Mozilla\Firefox\...

? 
! Undefined control sequence.
l.727   file = {Snapshot:C:\Users\srfiorini
                                           \AppData\Roaming\Mozilla\Firefox\...

? 
! Undefined control sequence.
l.727 ...le = {Snapshot:C:\Users\srfiorini\AppData
                                                  \Roaming\Mozilla\Firefox\P...

? 
! Undefined control sequence.
l.727 ...apshot:C:\Users\srfiorini\AppData\Roaming
                                                  \Mozilla\Firefox\Profiles\...

? 
! Undefined control sequence.
l.727 ...:\Users\srfiorini\AppData\Roaming\Mozilla
                                                  \Firefox\Profiles\cag90s3o...

? 
! Undefined control sequence.
l.727 ...srfiorini\AppData\Roaming\Mozilla\Firefox
                                                  \Profiles\cag90s3o.default...

? 
! Undefined control sequence.
l.727 ...\AppData\Roaming\Mozilla\Firefox\Profiles
                                                  \cag90s3o.default\zotero\s...

? 
! Undefined control sequence.
l.727 ...Data\Roaming\Mozilla\Firefox\Profiles\cag
                                                  90s3o.default\zotero\stora...

? 
! Undefined control sequence.
l.727 ...\Firefox\Profiles\cag90s3o.default\zotero
                                                  \storage\5PKW82UD\3-540-47...

? 
! Undefined control sequence.
l.727 ...\Profiles\cag90s3o.default\zotero\storage
                                                  \5PKW82UD\3-540-47979-1_7....

? 
! Undefined control sequence.
l.727 ...rofiles\cag90s3o.default\zotero\storage\5
                                                  PKW82UD\3-540-47979-1_7.ht...

? 
! Undefined control sequence.
l.727 ...ag90s3o.default\zotero\storage\5PKW82UD\3
                                                  -540-47979-1_7.html:text/h...

? 
! Missing $ inserted.
<inserted text> 
                $
<to be read again> 
                   _
l.727 ...lt\zotero\storage\5PKW82UD\3-540-47979-1_
                                                  7.html:text/html},
? 
! Extra }, or forgotten $.
l.727 ...\5PKW82UD\3-540-47979-1_7.html:text/html}
                                                  ,
? 
! Extra }, or forgotten $.
l.736 }
       
? 
! Missing $ inserted.
<inserted text> 
                $
<to be read again> 
                   \par 
l.737 
      
? 

Overfull \hbox (328.34366pt too wide) in paragraph at lines 712--737
[]\teni ; language \tenrm =|

\hbox(7.5+2.5)x469.75499
.\hbox(7.5+2.5)x742.70625
..\teni A
..\teni r
..\kern0.27779
..\teni t
..\teni i
..etc.
.\teni ;
.\glue(\thinmuskip) 1.66663
.\teni l
.\kern0.19678
.etc.


Overfull \hbox (34.56071pt too wide) in paragraph at lines 712--737
[]\teni ; owner \tenrm = []\teni ; shorttitle \tenrm = []\teni ; timestamp \ten
rm = []\teni ; urldate \tenrm =|

\hbox(6.94444+1.94444)x469.75499
.\hbox(4.30554+0.0)x10.65862
..\teni e
..\teni n
.\teni ;
.\glue(\thinmuskip) 1.66663
.\teni o
.\teni w
.etc.


Underfull \vbox (badness 1215) has occurred while \output is active
\vbox(643.20255+2.5)x469.75499, glue set 2.30064
.\glue(\topskip) 3.05556
.\hbox(6.94444+1.94444)x469.75499, glue set 0.75851
..\tenrm t
..\tenrm o
..\glue 3.33333 plus 1.66666 minus 1.11111
..\tenrm m
..\tenrm e
..etc.
.\penalty 100
.\glue(\baselineskip) 3.11111
.\hbox(6.94444+1.94444)x469.75499, glue set 0.07152
..\tenrm a
..\tenrm u
..\tenrm t
..\tenrm o
..\tenrm m
..etc.
.etc.

 [8]
! Undefined control sequence.
l.799   file = {:C:\Users
                         \srfiorini\AppData\Roaming\Mozilla\Firefox\Profiles...

? 
! Undefined control sequence.
l.799   file = {:C:\Users\srfiorini
                                   \AppData\Roaming\Mozilla\Firefox\Profiles...

? 
! Undefined control sequence.
l.799   file = {:C:\Users\srfiorini\AppData
                                           \Roaming\Mozilla\Firefox\Profiles...

? 
! Undefined control sequence.
l.799 ...le = {:C:\Users\srfiorini\AppData\Roaming
                                                  \Mozilla\Firefox\Profiles\...

? 
! Undefined control sequence.
l.799 ...:\Users\srfiorini\AppData\Roaming\Mozilla
                                                  \Firefox\Profiles\cag90s3o...

? 
! Undefined control sequence.
l.799 ...srfiorini\AppData\Roaming\Mozilla\Firefox
                                                  \Profiles\cag90s3o.default...

? 
! Undefined control sequence.
l.799 ...\AppData\Roaming\Mozilla\Firefox\Profiles
                                                  \cag90s3o.default\zotero\s...

? 
! Undefined control sequence.
l.799 ...Data\Roaming\Mozilla\Firefox\Profiles\cag
                                                  90s3o.default\zotero\stora...

? 
! Undefined control sequence.
l.799 ...\Firefox\Profiles\cag90s3o.default\zotero
                                                  \storage\IFGTIZSN\CVPR.200...

? 
! Undefined control sequence.
l.799 ...\Profiles\cag90s3o.default\zotero\storage
                                                  \IFGTIZSN\CVPR.2008.html:t...

? 
! Undefined control sequence.
l.799 ...\cag90s3o.default\zotero\storage\IFGTIZSN
                                                  \CVPR.2008.html:text/html},
? 
! Undefined control sequence.
l.799 ...0s3o.default\zotero\storage\IFGTIZSN\CVPR
                                                  .2008.html:text/html},
? 

Overfull \hbox (25.46819pt too wide) in paragraph at lines 804--826
\tenrm mea-sure-ments;Object recog-ni-tion;Prototypes;Shape;conceptual spaces;m
etric spaces;part-whole re-la-tion;similarity,|

\hbox(6.94444+1.94444)x469.75499, glue set - 1.0
.\tenrm m
.\tenrm e
.\tenrm a
.\discretionary
..\tenrm -
.\tenrm s
.etc.


Overfull \hbox (15.66272pt too wide) in paragraph at lines 827--837
\tenrm owner = sr-fior-ini, times-tamp = 2013.12.16, url = http://www.inf.ufrgs
.br/ srfiorini/wp-content/uploads/Sandro-|

\hbox(7.5+2.5)x469.75499, glue set - 1.0
.\tenrm o
.\kern-0.27779
.\tenrm w
.\tenrm n
.\tenrm e
.etc.

[9]
Missing character: There is no ^^c3 in font cmr10!
Missing character: There is no ^^b3 in font cmr10!

! Missing $ inserted.
<inserted text> 
                $
<to be read again> 
                   \delimiter 
\{->\delimiter 
               "4266308 
l.883 ...nowledge-based vision systems. The emph\{
                                                  symbol grounding problem\}...

? 
! Extra }, or forgotten $.
l.883 ...e test case is shown as running example.}
                                                  ,
? 
! Extra }, or forgotten $.
l.888 }
       
? 
! Missing $ inserted.
<inserted text> 
                $
<to be read again> 
                   \par 
l.889 
      
? 

Overfull \hbox (227.26784pt too wide) in paragraph at lines 871--889
\tenrm ject of dis-cus-sion in knowledge-based vi-sion sys-tems. The emph$\tens
y f\teni symbolgroundingproblem\tensy g\teni referstotheissueofconnectingsymbol
sofasymbolsystemtotheirlow \tensy ^^@|

\hbox(7.5+2.5)x469.75499, glue set - 1.0
.\tenrm j
.\tenrm e
.\tenrm c
.\tenrm t
.\glue 3.33333 plus 1.66666 minus 1.11111
.etc.


Overfull \hbox (34.45403pt too wide) in paragraph at lines 871--889
\teni levelprojectionswithinperceptualinput:Inthispaper; wepresentourongoingeff
ortsinformalizinganontologically \tensy ^^@|

\hbox(6.94444+1.94444)x469.75499, glue set - 1.0
.\teni l
.\kern0.19678
.\teni e
.\teni v
.\kern0.35878
.etc.


Overfull \hbox (41.9622pt too wide) in paragraph at lines 871--889
\teni founded; domain \tensy ^^@ \teni independentvisualknowledgemodelthatallow
sonetorepresentthegroundingrelationbetweenhigh \tensy ^^@|

\hbox(6.94444+1.94444)x469.75499, glue set - 1.0
.\teni f
.\kern1.0764
.\teni o
.\teni u
.\teni n
.etc.


Overfull \hbox (2060.32811pt too wide) in paragraph at lines 871--889
\teni leveldomainentitiesandbasicimagefeaturesof\tenrm 2 \tensy ^^@ \teni Dline
charts:Thecharacterizationofthegroundingrelationsaccordingitsontologicalstatuss
houldprovideabettercriteriaindecidingwhichdomainentitiescanbegrounded; improvin
greusabilityofourmodelinmultipleinterpretationdomainsandbetterstructuringoftheg
roundingrelations:Additionally; wepresentanalgorithmforvisualinterpretationusin
gtheproposedmodel:Theframeworkofmodelsandalgorithmhasbeenimplementedinavisualin
terpretationsystemforGeologydomain:Onetestcaseisshownasrunningexample:; doi \te
nrm =|

\hbox(6.94444+1.94444)x469.75499, glue set - 1.0
.\teni l
.\kern0.19678
.\teni e
.\teni v
.\kern0.35878
.etc.


Overfull \hbox (11.72878pt too wide) in paragraph at lines 871--889
[]\teni ; file \tenrm = []\teni ; owner \tenrm = []\teni ; timestamp \tenrm = [
]$ |

\hbox(7.5+2.5)x469.75499
.\hbox(7.5+2.5)x114.78352
..\tenrm 1
..\tenrm 0
..\teni :
..\tenrm 1
..\tenrm 1
..etc.
.\teni ;
.\glue(\thinmuskip) 1.66663
.\teni f
.\kern1.0764
.etc.

Missing character: There is no ^^e2 in font cmr10!
Missing character: There is no ^^80 in font cmr10!
Missing character: There is no ^^93 in font cmr10!
Missing character: There is no ^^e2 in font cmr10!
Missing character: There is no ^^80 in font cmr10!
Missing character: There is no ^^93 in font cmr10!
Missing character: There is no ^^c3 in font cmr10!
Missing character: There is no ^^a4 in font cmr10!
Missing character: There is no ^^e2 in font cmr10!
Missing character: There is no ^^80 in font cmr10!
Missing character: There is no ^^99 in font cmr10!
Missing character: There is no ^^e2 in font cmr10!
Missing character: There is no ^^80 in font cmr10!
Missing character: There is no ^^93 in font cmr10!
Missing character: There is no ^^e2 in font cmr10!
Missing character: There is no ^^80 in font cmr10!
Missing character: There is no ^^93 in font cmr10!
Missing character: There is no ^^c3 in font cmr10!
Missing character: There is no ^^a4 in font cmr10!
Missing character: There is no ^^e2 in font cmr10!
Missing character: There is no ^^80 in font cmr10!
Missing character: There is no ^^99 in font cmr10!
Missing character: There is no ^^e2 in font cmr10!
Missing character: There is no ^^80 in font cmr10!
Missing character: There is no ^^93 in font cmr10!
Missing character: There is no ^^e2 in font cmr10!
Missing character: There is no ^^80 in font cmr10!
Missing character: There is no ^^93 in font cmr10!
Missing character: There is no ^^e2 in font cmr10!
Missing character: There is no ^^80 in font cmr10!
Missing character: There is no ^^93 in font cmr10!
Missing character: There is no ^^e2 in font cmr10!
Missing character: There is no ^^80 in font cmr10!
Missing character: There is no ^^93 in font cmr10!
Missing character: There is no ^^e2 in font cmr10!
Missing character: There is no ^^80 in font cmr10!
Missing character: There is no ^^93 in font cmr10!
Missing character: There is no ^^e2 in font cmr10!
Missing character: There is no ^^80 in font cmr10!
Missing character: There is no ^^93 in font cmr10!
Missing character: There is no ^^e2 in font cmr10!
Missing character: There is no ^^80 in font cmr10!
Missing character: There is no ^^93 in font cmr10!
Missing character: There is no ^^e2 in font cmr10!
Missing character: There is no ^^80 in font cmr10!
Missing character: There is no ^^9c in font cmr10!
Missing character: There is no ^^e2 in font cmr10!
Missing character: There is no ^^80 in font cmr10!
Missing character: There is no ^^93 in font cmr10!
Missing character: There is no ^^e2 in font cmr10!
Missing character: There is no ^^80 in font cmr10!
Missing character: There is no ^^9d in font cmr10!
Missing character: There is no ^^e2 in font cmr10!
Missing character: There is no ^^80 in font cmr10!
Missing character: There is no ^^93 in font cmr10!
Missing character: There is no ^^e2 in font cmr10!
Missing character: There is no ^^80 in font cmr10!
Missing character: There is no ^^93 in font cmr10!
Missing character: There is no ^^e2 in font cmr10!
Missing character: There is no ^^80 in font cmr10!
Missing character: There is no ^^93 in font cmr10!
Missing character: There is no ^^e2 in font cmr10!
Missing character: There is no ^^80 in font cmr10!
Missing character: There is no ^^93 in font cmr10!

Underfull \vbox (badness 1215) has occurred while \output is active
\vbox(643.20255+1.94444)x469.75499, glue set 2.30064
.\glue(\topskip) 3.05556
.\hbox(6.94444+1.94444)x469.75499, glue set - 0.63463
..\tenrm t
..\tenrm h
..\tenrm e
..\glue 3.33333 plus 1.66666 minus 1.11111
..\tenrm r
..etc.
.\glue(\baselineskip) 3.11111
.\hbox(6.94444+1.94444)x469.75499, glue set - 0.26962
..\tenrm t
..\tenrm h
..\tenrm e
..\glue 3.33333 plus 1.66666 minus 1.11111
..\tenrm s
..etc.
.\glue(\baselineskip) 3.11111
.etc.

 [10]
Missing character: There is no ^^e2 in font cmr10!
Missing character: There is no ^^80 in font cmr10!
Missing character: There is no ^^93 in font cmr10!
Missing character: There is no ^^e2 in font cmr10!
Missing character: There is no ^^80 in font cmr10!
Missing character: There is no ^^93 in font cmr10!
Missing character: There is no ^^c3 in font cmr10!
Missing character: There is no ^^a4 in font cmr10!
Missing character: There is no ^^e2 in font cmr10!
Missing character: There is no ^^80 in font cmr10!
Missing character: There is no ^^99 in font cmr10!
Missing character: There is no ^^e2 in font cmr10!
Missing character: There is no ^^80 in font cmr10!
Missing character: There is no ^^99 in font cmr10!
Missing character: There is no ^^c3 in font cmr10!
Missing character: There is no ^^b3 in font cmr10!
Missing character: There is no ^^c3 in font cmr10!
Missing character: There is no ^^a9 in font cmr10!
Missing character: There is no ^^c3 in font cmr10!
Missing character: There is no ^^b3 in font cmr10!
Missing character: There is no ^^e2 in font cmr10!
Missing character: There is no ^^80 in font cmr10!
Missing character: There is no ^^99 in font cmr10!
Missing character: There is no ^^e2 in font cmr10!
Missing character: There is no ^^80 in font cmr10!
Missing character: There is no ^^99 in font cmr10!
Missing character: There is no ^^e2 in font cmr10!
Missing character: There is no ^^80 in font cmr10!
Missing character: There is no ^^9c in font cmr10!
Missing character: There is no ^^e2 in font cmr10!
Missing character: There is no ^^80 in font cmr10!
Missing character: There is no ^^9d in font cmr10!

[11]
Missing character: There is no ^^e2 in font cmr10!
Missing character: There is no ^^80 in font cmr10!
Missing character: There is no ^^93 in font cmr10!
Missing character: There is no ^^e2 in font cmr10!
Missing character: There is no ^^80 in font cmr10!
Missing character: There is no ^^93 in font cmr10!
Missing character: There is no ^^e2 in font cmr10!
Missing character: There is no ^^80 in font cmr10!
Missing character: There is no ^^9c in font cmr10!
Missing character: There is no ^^e2 in font cmr10!
Missing character: There is no ^^80 in font cmr10!
Missing character: There is no ^^9d in font cmr10!

! Undefined control sequence.
l.1154   file = {APA PsycNET Snapshot:C:\Users
                                              \srfiorini\AppData\Roaming\Moz...

? 
! Undefined control sequence.
l.1154 ...{APA PsycNET Snapshot:C:\Users\srfiorini
                                                  \AppData\Roaming\Mozilla\F...

? 
! Undefined control sequence.
l.1154 ...cNET Snapshot:C:\Users\srfiorini\AppData
                                                  \Roaming\Mozilla\Firefox\P...

? 
! Undefined control sequence.
l.1154 ...pshot:C:\Users\srfiorini\AppData\Roaming
                                                  \Mozilla\Firefox\Profiles\...

? 
! Undefined control sequence.
l.1154 ...\Users\srfiorini\AppData\Roaming\Mozilla
                                                  \Firefox\Profiles\xeab1w7g...

? 
! Undefined control sequence.
l.1154 ...rfiorini\AppData\Roaming\Mozilla\Firefox
                                                  \Profiles\xeab1w7g.default...

? 
! Undefined control sequence.
l.1154 ...AppData\Roaming\Mozilla\Firefox\Profiles
                                                  \xeab1w7g.default\zotero\s...

? 
! Undefined control sequence.
l.1154 ...ta\Roaming\Mozilla\Firefox\Profiles\xeab
                                                  1w7g.default\zotero\storag...

? 
! Undefined control sequence.
l.1154 ...Firefox\Profiles\xeab1w7g.default\zotero
                                                  \storage\4RPVDRK8\2005-096...

? 
! Undefined control sequence.
l.1154 ...Profiles\xeab1w7g.default\zotero\storage
                                                  \4RPVDRK8\2005-09680-002.h...

? 
! Undefined control sequence.
l.1154 ...ofiles\xeab1w7g.default\zotero\storage\4
                                                  RPVDRK8\2005-09680-002.htm...

? 
! Undefined control sequence.
l.1154 ...ab1w7g.default\zotero\storage\4RPVDRK8\2
                                                  005-09680-002.html:text/ht...

? 

Underfull \vbox (badness 1215) has occurred while \output is active
\vbox(643.20255+1.94444)x469.75499, glue set 2.30064
.\glue(\topskip) 3.05556
.\hbox(6.94444+1.94444)x469.75499, glue set 0.27573
..\tenrm o
..\tenrm f
..\glue 3.33333 plus 1.66666 minus 1.11111
..\tenrm C
..\tenrm o
..etc.
.\glue(\baselineskip) 2.55556
.\hbox(7.5+2.5)x469.75499, glue set 0.10942
..\tenrm =
..\glue 3.33333 plus 1.66666 minus 1.11111
..\tenrm 1
..\tenrm 0
..\tenrm .
..etc.
.\penalty 150
.etc.

 [12]
Missing character: There is no ^^e2 in font cmr10!
Missing character: There is no ^^80 in font cmr10!
Missing character: There is no ^^93 in font cmr10!
Missing character: There is no ^^e2 in font cmr10!
Missing character: There is no ^^80 in font cmr10!
Missing character: There is no ^^93 in font cmr10!

! Undefined control sequence.
l.1261 ^^IJos\~A\copyright Gon\~A\Salves
                                        },
? 
[13]
Missing character: There is no ^^e2 in font cmr10!
Missing character: There is no ^^80 in font cmr10!
Missing character: There is no ^^93 in font cmr10!
Missing character: There is no ^^e2 in font cmr10!
Missing character: There is no ^^80 in font cmr10!
Missing character: There is no ^^93 in font cmr10!
Missing character: There is no ^^e2 in font cmr10!
Missing character: There is no ^^80 in font cmr10!
Missing character: There is no ^^99 in font cmr10!
Missing character: There is no ^^e2 in font cmr10!
Missing character: There is no ^^80 in font cmr10!
Missing character: There is no ^^af in font cmr10!
Missing character: There is no ^^e2 in font cmr10!
Missing character: There is no ^^80 in font cmr10!
Missing character: There is no ^^93 in font cmr10!
 [14]
Missing character: There is no ^^e2 in font cmr10!
Missing character: There is no ^^80 in font cmr10!
Missing character: There is no ^^93 in font cmr10!
Missing character: There is no ^^e2 in font cmr10!
Missing character: There is no ^^80 in font cmr10!
Missing character: There is no ^^af in font cmr10!
Missing character: There is no ^^c3 in font cmr10!
Missing character: There is no ^^bc in font cmr10!

Overfull \hbox (10.95433pt too wide) in paragraph at lines 1446--1460
[]\tenrm @INPROCEEDINGSJohansson2011Shape, au-thor = In-g-var Jo-hans-son, ti-t
le = Shape is a Non-Quantifiable|

\hbox(6.94444+1.94444)x469.75499, glue set - 1.0
.\hbox(0.0+0.0)x20.0
.\tenrm @
.\tenrm I
.\tenrm N
.\tenrm P
.etc.


Overfull \hbox (5.27371pt too wide) in paragraph at lines 1446--1460
\tenrm Phys-i-cal Di-men-sion, book-ti-tle = Pro-ceed-ings..., year = 2011, or-
ga-ni-za-tion = The Shapes of Things, conference-|

\hbox(6.94444+1.94444)x469.75499, glue set - 1.0
.\tenrm P
.\tenrm h
.\kern-0.27779
.\tenrm y
.\tenrm s
.etc.

Missing character: There is no ^^e2 in font cmr10!
Missing character: There is no ^^80 in font cmr10!
Missing character: There is no ^^93 in font cmr10!
Missing character: There is no ^^c3 in font cmr10!
Missing character: There is no ^^82 in font cmr10!
Missing character: There is no ^^c2 in font cmr10!
Missing character: There is no ^^bf in font cmr10!
Missing character: There is no ^^c3 in font cmr10!
Missing character: There is no ^^82 in font cmr10!
Missing character: There is no ^^c2 in font cmr10!
Missing character: There is no ^^bf in font cmr10!

Overfull \hbox (6.24596pt too wide) in paragraph at lines 1474--1497
\tenrm be-tween per-cep-tu-ally het-ero-ge-neous robots, book-ti-tle = Pro-ceed
-ings..., year = 2009, or-ga-ni-za-tion = IEEE/RSJ|

\hbox(7.5+2.5)x469.75499, glue set - 1.0
.\tenrm b
.\kern0.27779
.\tenrm e
.\discretionary
..\tenrm -
.\tenrm t
.etc.

[15]
Missing character: There is no ^^e2 in font cmr10!
Missing character: There is no ^^80 in font cmr10!
Missing character: There is no ^^93 in font cmr10!
Missing character: There is no ^^e2 in font cmr10!
Missing character: There is no ^^80 in font cmr10!
Missing character: There is no ^^99 in font cmr10!
Missing character: There is no ^^e2 in font cmr10!
Missing character: There is no ^^80 in font cmr10!
Missing character: There is no ^^99 in font cmr10!
Missing character: There is no ^^e2 in font cmr10!
Missing character: There is no ^^80 in font cmr10!
Missing character: There is no ^^99 in font cmr10!
Missing character: There is no ^^e2 in font cmr10!
Missing character: There is no ^^80 in font cmr10!
Missing character: There is no ^^99 in font cmr10!
Missing character: There is no ^^e2 in font cmr10!
Missing character: There is no ^^80 in font cmr10!
Missing character: There is no ^^93 in font cmr10!
Missing character: There is no ^^c3 in font cmr10!
Missing character: There is no ^^b4 in font cmr10!

! Missing $ inserted.
<inserted text> 
                $
<to be read again> 
                   _
l.1584   doi = {10.1007/978-3-642-16138-4_
                                          1},
? 
! Extra }, or forgotten $.
l.1584   doi = {10.1007/978-3-642-16138-4_1}
                                            ,
? 
! Extra }, or forgotten $.
l.1587 }
        
? 
! Missing $ inserted.
<inserted text> 
                $
<to be read again> 
                   \par 
l.1588 
       
? 
Missing character: There is no ^^e2 in font cmr10!
Missing character: There is no ^^80 in font cmr10!
Missing character: There is no ^^93 in font cmr10!

Underfull \vbox (badness 2884) has occurred while \output is active
\vbox(643.20255+1.94444)x469.75499, glue set 3.06752
.\glue(\topskip) 3.05556
.\hbox(6.94444+1.94444)x469.75499, glue set - 0.07977
..\hbox(0.0+0.0)x20.0
..\tenrm @
..\tenrm I
..\tenrm N
..\tenrm P
..etc.
.\penalty 250
.\glue(\baselineskip) 3.11111
.\hbox(6.94444+1.94444)x469.75499, glue set - 0.2409
..\tenrm a
..\discretionary
...\tenrm -
..\tenrm t
..\tenrm i
..\tenrm v
..etc.
.etc.

 [16]
Missing character: There is no ^^e2 in font cmr10!
Missing character: There is no ^^80 in font cmr10!
Missing character: There is no ^^93 in font cmr10!

! Misplaced alignment tab character &.
l.1653 ^^IGerner, Hake, &
                          Erik-sen, 1956) that purport to assess the extent
? 
! Misplaced alignment tab character &.
l.1661 ^^Iof separability [Filtering &
                                       Redundancy Tasks], a recent extension
? 
Missing character: There is no ^^e2 in font cmr10!
Missing character: There is no ^^80 in font cmr10!
Missing character: There is no ^^93 in font cmr10!
Missing character: There is no ^^e2 in font cmr10!
Missing character: There is no ^^80 in font cmr10!
Missing character: There is no ^^99 in font cmr10!
Missing character: There is no ^^e2 in font cmr10!
Missing character: There is no ^^80 in font cmr10!
Missing character: There is no ^^99 in font cmr10!
Missing character: There is no ^^e2 in font cmr10!
Missing character: There is no ^^80 in font cmr10!
Missing character: There is no ^^99 in font cmr10!

Underfull \vbox (badness 1215) has occurred while \output is active
\vbox(643.20255+2.5)x469.75499, glue set 2.30064
.\glue(\topskip) 2.5
.\hbox(7.5+2.5)x469.75499, glue set 0.34035
..\tenrm h
..\tenrm i
..\tenrm g
..\tenrm h
..\tenrm e
..etc.
.\glue(\baselineskip) 2.0
.\hbox(7.5+2.5)x469.75499, glue set - 0.09703
..\tenrm c
..\tenrm o
..\tenrm m
..\kern-0.27779
..\tenrm b
..etc.
.\penalty 150
.etc.

 [17]
Missing character: There is no ^^e2 in font cmr10!
Missing character: There is no ^^80 in font cmr10!
Missing character: There is no ^^93 in font cmr10!
Missing character: There is no ^^e2 in font cmr10!
Missing character: There is no ^^80 in font cmr10!
Missing character: There is no ^^99 in font cmr10!
Missing character: There is no ^^e2 in font cmr10!
Missing character: There is no ^^80 in font cmr10!
Missing character: There is no ^^93 in font cmr10!
Missing character: There is no ^^e2 in font cmr10!
Missing character: There is no ^^80 in font cmr10!
Missing character: There is no ^^93 in font cmr10!
Missing character: There is no ^^c3 in font cmr10!
Missing character: There is no ^^a7 in font cmr10!

! Missing $ inserted.
<inserted text> 
                $
<to be read again> 
                   _
l.1798   doi = {10.1007/3-540-56777-1_
                                      19}
? 
! Extra }, or forgotten $.
l.1798   doi = {10.1007/3-540-56777-1_19}
                                         
? 
! Extra }, or forgotten $.
l.1799 }
        
? 
! Missing $ inserted.
<inserted text> 
                $
<to be read again> 
                   \par 
l.1800 
       
? 
[18]
Missing character: There is no ^^e2 in font cmr10!
Missing character: There is no ^^80 in font cmr10!
Missing character: There is no ^^93 in font cmr10!
Missing character: There is no ^^e2 in font cmr10!
Missing character: There is no ^^80 in font cmr10!
Missing character: There is no ^^94 in font cmr10!
Missing character: There is no ^^e2 in font cmr10!
Missing character: There is no ^^80 in font cmr10!
Missing character: There is no ^^9c in font cmr10!
Missing character: There is no ^^e2 in font cmr10!
Missing character: There is no ^^80 in font cmr10!
Missing character: There is no ^^9d in font cmr10!
Missing character: There is no ^^e2 in font cmr10!
Missing character: There is no ^^80 in font cmr10!
Missing character: There is no ^^94 in font cmr10!
Missing character: There is no ^^e2 in font cmr10!
Missing character: There is no ^^80 in font cmr10!
Missing character: There is no ^^9c in font cmr10!
Missing character: There is no ^^e2 in font cmr10!
Missing character: There is no ^^80 in font cmr10!
Missing character: There is no ^^9d in font cmr10!
Missing character: There is no ^^e2 in font cmr10!
Missing character: There is no ^^80 in font cmr10!
Missing character: There is no ^^9c in font cmr10!
Missing character: There is no ^^e2 in font cmr10!
Missing character: There is no ^^80 in font cmr10!
Missing character: There is no ^^9d in font cmr10!
Missing character: There is no ^^e2 in font cmr10!
Missing character: There is no ^^80 in font cmr10!
Missing character: There is no ^^9c in font cmr10!
Missing character: There is no ^^e2 in font cmr10!
Missing character: There is no ^^80 in font cmr10!
Missing character: There is no ^^9d in font cmr10!
Missing character: There is no ^^e2 in font cmr10!
Missing character: There is no ^^80 in font cmr10!
Missing character: There is no ^^93 in font cmr10!

Underfull \vbox (badness 1215) has occurred while \output is active
\vbox(643.20255+1.94444)x469.75499, glue set 2.30064
.\glue(\topskip) 3.55556
.\hbox(6.44444+0.0)x469.75499, glue set 409.75484fil
..\tenrm =
..\glue 3.33333 plus 1.66666 minus 1.11111
..\tenrm 2
..\tenrm 0
..\tenrm 1
..etc.
.\glue(\parskip) 0.0 plus 1.0
.\glue(\baselineskip) 5.05556
.\hbox(6.94444+1.94444)x469.75499, glue set 0.6259
..\hbox(0.0+0.0)x20.0
..\tenrm @
..\tenrm I
..\tenrm N
..\tenrm C
..etc.
.etc.

 [19]
Missing character: There is no ^^c3 in font cmr10!
Missing character: There is no ^^b8 in font cmr10!
Missing character: There is no ^^e2 in font cmr10!
Missing character: There is no ^^80 in font cmr10!
Missing character: There is no ^^93 in font cmr10!
Missing character: There is no ^^c3 in font cmr10!
Missing character: There is no ^^a9 in font cmr10!
Missing character: There is no ^^c3 in font cmr10!
Missing character: There is no ^^a9 in font cmr10!
Missing character: There is no ^^c5 in font cmr10!
Missing character: There is no ^^a1 in font cmr10!
Missing character: There is no ^^e2 in font cmr10!
Missing character: There is no ^^80 in font cmr10!
Missing character: There is no ^^93 in font cmr10!

! Undefined control sequence.
l.1997 ... Review of Psychology, 58(1):75:C:\Users
                                                  \srfiorini\AppData\Roaming...

? 
! Undefined control sequence.
l.1997 ... Psychology, 58(1):75:C:\Users\srfiorini
                                                  \AppData\Roaming\Mozilla\F...

? 
! Undefined control sequence.
l.1997 ...ogy, 58(1):75:C:\Users\srfiorini\AppData
                                                  \Roaming\Mozilla\Firefox\P...

? 
! Undefined control sequence.
l.1997 ...1):75:C:\Users\srfiorini\AppData\Roaming
                                                  \Mozilla\Firefox\Profiles\...

? 
! Undefined control sequence.
l.1997 ...\Users\srfiorini\AppData\Roaming\Mozilla
                                                  \Firefox\Profiles\cag90s3o...

? 
! Undefined control sequence.
l.1997 ...rfiorini\AppData\Roaming\Mozilla\Firefox
                                                  \Profiles\cag90s3o.default...

? 
! Undefined control sequence.
l.1997 ...AppData\Roaming\Mozilla\Firefox\Profiles
                                                  \cag90s3o.default\zotero\s...

? 
! Undefined control sequence.
l.1997 ...ata\Roaming\Mozilla\Firefox\Profiles\cag
                                                  90s3o.default\zotero\stora...

? 
! Undefined control sequence.
l.1997 ...Firefox\Profiles\cag90s3o.default\zotero
                                                  \storage\SCP5JJC3\annurev....

? 
! Undefined control sequence.
l.1997 ...Profiles\cag90s3o.default\zotero\storage
                                                  \SCP5JJC3\annurev.psych.58...

? 
! Undefined control sequence.
l.1997 ...iles\cag90s3o.default\zotero\storage\SCP
                                                  5JJC3\annurev.psych.58.102...

? 
! Undefined control sequence.
l.1997 ....default\zotero\storage\SCP5JJC3\annurev
                                                  .psych.58.102904.html:text...

? 
Missing character: There is no ^^e2 in font cmr10!
Missing character: There is no ^^80 in font cmr10!
Missing character: There is no ^^93 in font cmr10!
Missing character: There is no ^^e2 in font cmr10!
Missing character: There is no ^^80 in font cmr10!
Missing character: There is no ^^94 in font cmr10!
Missing character: There is no ^^e2 in font cmr10!
Missing character: There is no ^^80 in font cmr10!
Missing character: There is no ^^9c in font cmr10!
Missing character: There is no ^^e2 in font cmr10!
Missing character: There is no ^^80 in font cmr10!
Missing character: There is no ^^9d in font cmr10!
Missing character: There is no ^^e2 in font cmr10!
Missing character: There is no ^^80 in font cmr10!
Missing character: There is no ^^94 in font cmr10!
Missing character: There is no ^^e2 in font cmr10!
Missing character: There is no ^^80 in font cmr10!
Missing character: There is no ^^9c in font cmr10!
Missing character: There is no ^^e2 in font cmr10!
Missing character: There is no ^^80 in font cmr10!
Missing character: There is no ^^9d in font cmr10!
Missing character: There is no ^^e2 in font cmr10!
Missing character: There is no ^^80 in font cmr10!
Missing character: There is no ^^99 in font cmr10!
[20]
Overfull \hbox (165.19081pt too wide) in paragraph at lines 2085--2095
\tenrm ni-za-tion = W3C, owner = sr-fior-ini, times-tamp = 2013.08.26, url = ht
tp://www.w3.org/2001/sw/BestPractices/OEP/SimplePartWhole/index.html|

\hbox(7.5+2.5)x469.75499, glue set - 1.0
.\tenrm n
.\tenrm i
.\discretionary
..\tenrm -
.\tenrm z
.\tenrm a
.etc.


Underfull \hbox (badness 10000) in paragraph at lines 2085--2095


\hbox(0.0+0.0)x469.75499
.\glue(\rightskip) 0.0

Missing character: There is no ^^e2 in font cmr10!
Missing character: There is no ^^80 in font cmr10!
Missing character: There is no ^^94 in font cmr10!
Missing character: There is no ^^e2 in font cmr10!
Missing character: There is no ^^80 in font cmr10!
Missing character: There is no ^^94 in font cmr10!
Missing character: There is no ^^c3 in font cmr10!
Missing character: There is no ^^b6 in font cmr10!
Missing character: There is no ^^e2 in font cmr10!
Missing character: There is no ^^80 in font cmr10!
Missing character: There is no ^^99 in font cmr10!
[21]
Missing character: There is no ^^e2 in font cmr10!
Missing character: There is no ^^80 in font cmr10!
Missing character: There is no ^^93 in font cmr10!
Missing character: There is no ^^e2 in font cmr10!
Missing character: There is no ^^80 in font cmr10!
Missing character: There is no ^^99 in font cmr10!
Missing character: There is no ^^e2 in font cmr10!
Missing character: There is no ^^80 in font cmr10!
Missing character: There is no ^^99 in font cmr10!
 [22]
Missing character: There is no ^^e2 in font cmr10!
Missing character: There is no ^^80 in font cmr10!
Missing character: There is no ^^93 in font cmr10!
Missing character: There is no ^^e2 in font cmr10!
Missing character: There is no ^^80 in font cmr10!
Missing character: There is no ^^9c in font cmr10!
Missing character: There is no ^^e2 in font cmr10!
Missing character: There is no ^^80 in font cmr10!
Missing character: There is no ^^9d in font cmr10!
Missing character: There is no ^^e2 in font cmr10!
Missing character: There is no ^^80 in font cmr10!
Missing character: There is no ^^9c in font cmr10!
Missing character: There is no ^^e2 in font cmr10!
Missing character: There is no ^^80 in font cmr10!
Missing character: There is no ^^9d in font cmr10!
Missing character: There is no ^^e2 in font cmr10!
Missing character: There is no ^^80 in font cmr10!
Missing character: There is no ^^99 in font cmr10!
Missing character: There is no ^^c2 in font cmr10!
Missing character: There is no ^^bf in font cmr10!
 [23]
Missing character: There is no ^^e2 in font cmr10!
Missing character: There is no ^^80 in font cmr10!
Missing character: There is no ^^99 in font cmr10!
Missing character: There is no ^^e2 in font cmr10!
Missing character: There is no ^^80 in font cmr10!
Missing character: There is no ^^93 in font cmr10!
Missing character: There is no ^^e2 in font cmr10!
Missing character: There is no ^^80 in font cmr10!
Missing character: There is no ^^93 in font cmr10!
Missing character: There is no ^^e2 in font cmr10!
Missing character: There is no ^^80 in font cmr10!
Missing character: There is no ^^93 in font cmr10!
Missing character: There is no ^^e2 in font cmr10!
Missing character: There is no ^^80 in font cmr10!
Missing character: There is no ^^93 in font cmr10!
Missing character: There is no ^^e2 in font cmr10!
Missing character: There is no ^^80 in font cmr10!
Missing character: There is no ^^93 in font cmr10!
 [24]
Missing character: There is no ^^e2 in font cmr10!
Missing character: There is no ^^80 in font cmr10!
Missing character: There is no ^^93 in font cmr10!
Missing character: There is no ^^e2 in font cmr10!
Missing character: There is no ^^80 in font cmr10!
Missing character: There is no ^^93 in font cmr10!
Missing character: There is no ^^e2 in font cmr10!
Missing character: There is no ^^80 in font cmr10!
Missing character: There is no ^^99 in font cmr10!

! Undefined control sequence.
l.2591 ...s, cores, and outcrops.{\textasciicircum
                                                  }The book illustrates well...

? 

Overfull \hbox (158.85751pt too wide) in paragraph at lines 2594--2606
\tenrm N.Editor, edi-tion = Spring 2011, owner = sr-fior-ini, times-tamp = 2013
.07.19, url = http://plato.stanford.edu/archives/spr2011/entries/mereology/|

\hbox(7.5+2.5)x469.75499, glue set - 1.0
.\tenrm N
.\tenrm .
.\tenrm E
.\tenrm d
.\tenrm i
.etc.


Underfull \hbox (badness 10000) in paragraph at lines 2594--2606


\hbox(0.0+0.0)x469.75499
.\glue(\rightskip) 0.0

Missing character: There is no ^^e2 in font cmr10!
Missing character: There is no ^^80 in font cmr10!
Missing character: There is no ^^93 in font cmr10!
[25]
Overfull \hbox (7.70433pt too wide) in paragraph at lines 2641--2656
[]\tenrm @ARTICLEWilliams2009grounding, au-thor = Williams, Mary-Anne and Mc-Ca
rthy, John and G^^?ardenfors,|

\hbox(6.94444+1.94444)x469.75499, glue set - 1.0
.\hbox(0.0+0.0)x20.0
.\tenrm @
.\tenrm A
.\tenrm R
.\kern-0.83334
.etc.

Missing character: There is no ^^e2 in font cmr10!
Missing character: There is no ^^80 in font cmr10!
Missing character: There is no ^^93 in font cmr10!
Missing character: There is no ^^e2 in font cmr10!
Missing character: There is no ^^80 in font cmr10!
Missing character: There is no ^^99 in font cmr10!
Missing character: There is no ^^e2 in font cmr10!
Missing character: There is no ^^80 in font cmr10!
Missing character: There is no ^^9c in font cmr10!
Missing character: There is no ^^e2 in font cmr10!
Missing character: There is no ^^80 in font cmr10!
Missing character: There is no ^^9d in font cmr10!
Missing character: There is no ^^e2 in font cmr10!
Missing character: There is no ^^80 in font cmr10!
Missing character: There is no ^^93 in font cmr10!
Missing character: There is no ^^c3 in font cmr10!
Missing character: There is no ^^a3 in font cmr10!
[26])
*
(Please type a command or say `\end')
*
(Please type a command or say `\end')
*
(Please type a command or say `\end')
*
(Please type a command or say `\end')
*
(Please type a command or say `\end')
*
(Please type a command or say `\end')
*
(Please type a command or say `\end')
*
(Please type a command or say `\end')
*
(Please type a command or say `\end')
*
(Please type a command or say `\end')
*
(Please type a command or say `\end')
*
(Please type a command or say `\end')
*
(Please type a command or say `\end')
*
(Please type a command or say `\end')
*
(Please type a command or say `\end')
*
(Please type a command or say `\end')
*
(Please type a command or say `\end')
*
(Please type a command or say `\end')
*
(Please type a command or say `\end')
*
(Please type a command or say `\end')
*
(Please type a command or say `\end')
*
(Please type a command or say `\end')
*
(Please type a command or say `\end')
*
(Please type a command or say `\end')
*
(Please type a command or say `\end')
*
(Please type a command or say `\end')
*
(Please type a command or say `\end')
*
(Please type a command or say `\end')
*
(Please type a command or say `\end')
*
(Please type a command or say `\end')
*
(Please type a command or say `\end')
*
(Please type a command or say `\end')
*
(Please type a command or say `\end')
*
(Please type a command or say `\end')
*\end
[27]
(\end occurred inside a group at level 14)
Output written on biblio.dvi (27 pages, 179176 bytes).
