\relax 
\providecommand\hyper@newdestlabel[2]{}
\catcode `"\active 
\providecommand*\tocstyle@set@width[4]{}
\providecommand\HyperFirstAtBeginDocument{\AtBeginDocument}
\HyperFirstAtBeginDocument{\ifx\hyper@anchor\@undefined
\global\let\oldcontentsline\contentsline
\gdef\contentsline#1#2#3#4{\oldcontentsline{#1}{#2}{#3}}
\global\let\oldnewlabel\newlabel
\gdef\newlabel#1#2{\newlabelxx{#1}#2}
\gdef\newlabelxx#1#2#3#4#5#6{\oldnewlabel{#1}{{#2}{#3}}}
\AtEndDocument{\ifx\hyper@anchor\@undefined
\let\contentsline\oldcontentsline
\let\newlabel\oldnewlabel
\fi}
\fi}
\global\let\hyper@last\relax 
\gdef\HyperFirstAtBeginDocument#1{#1}
\providecommand\HyField@AuxAddToFields[1]{}
\providecommand\HyField@AuxAddToCoFields[2]{}
\citation{abnt-url-package=url}
\citation{abnt-emphasize=bf}
\select@language{brazilian}
\@writefile{toc}{\select@language{brazilian}}
\@writefile{lof}{\select@language{brazilian}}
\@writefile{lot}{\select@language{brazilian}}
\select@language{brazilian}
\@writefile{toc}{\select@language{brazilian}}
\@writefile{lof}{\select@language{brazilian}}
\@writefile{lot}{\select@language{brazilian}}
\@writefile{lof}{\addvspace {10\p@ }}
\@writefile{lot}{\addvspace {10\p@ }}
\tocstyle@set@width {unum}{toc}{}{30.0pt}
\tocstyle@set@width {skip}{toc}{0}{0.0pt}
\tocstyle@set@width {num}{toc}{1}{21.0pt}
\tocstyle@set@width {skip}{toc}{1}{18.0pt}
\tocstyle@set@width {num}{toc}{2}{30.0pt}
\tocstyle@set@width {skip}{toc}{2}{39.0pt}
\select@language{brazilian}
\@writefile{toc}{\select@language{brazilian}}
\@writefile{lof}{\select@language{brazilian}}
\@writefile{lot}{\select@language{brazilian}}
\citation{frascolla1994}
\citation{witt1921}
\citation{witt1921}
\citation{frascolla1994}
\@writefile{toc}{\contentsline {chapter}{1~Introdu\IeC {\c c}\IeC {\~a}o}{3}{CHAPTER.1}}
\@writefile{lof}{\addvspace {10\p@ }}
\@writefile{lot}{\addvspace {10\p@ }}
\@writefile{lol}{\addvspace {10\p@ }}
\newlabel{intro}{{1}{3}{Introdução}{CHAPTER.1}{}}
\@writefile{toc}{\contentsline {section}{\numberline {1.1}Sobre o Problema a ser Tratado}{3}{section.1.1}}
\newlabel{(1.2)}{{1.1}{3}{Sobre o Problema a ser Tratado}{equation.1.1.1}{}}
\citation{frascolla1994}
\newlabel{(1.4)}{{1.1}{4}{Sobre o Problema a ser Tratado}{equation.1.1.3}{}}
\newlabel{(1.10)}{{1.1}{4}{Sobre o Problema a ser Tratado}{equation.1.1.10}{}}
\@writefile{toc}{\contentsline {subsection}{\numberline {1.1.1}Vis\IeC {\~a}o geral da linguagem}{5}{subsection.1.1.1}}
\@writefile{toc}{\contentsline {chapter}{2~Regras da Linguagem de Wittgenstein}{6}{CHAPTER.2}}
\@writefile{lof}{\addvspace {10\p@ }}
\@writefile{lot}{\addvspace {10\p@ }}
\@writefile{lol}{\addvspace {10\p@ }}
\newlabel{regras}{{2}{6}{Regras da Linguagem de Wittgenstein}{CHAPTER.2}{}}
\@writefile{toc}{\contentsline {section}{\numberline {2.1}Regras}{6}{section.2.1}}
\@writefile{toc}{\contentsline {section}{\numberline {2.2}Exemplo de multiplica\IeC {\c c}\IeC {\~a}o de 3 por 5}{7}{section.2.2}}
\@writefile{toc}{\contentsline {chapter}{3~An\IeC {\'a}lise Cr\IeC {\'\i }tica}{9}{CHAPTER.3}}
\@writefile{lof}{\addvspace {10\p@ }}
\@writefile{lot}{\addvspace {10\p@ }}
\@writefile{lol}{\addvspace {10\p@ }}
\newlabel{analise}{{3}{9}{Análise Crítica}{CHAPTER.3}{}}
\@writefile{toc}{\contentsline {section}{\numberline {3.1}Tabela}{9}{section.3.1}}
\@writefile{lot}{\contentsline {table}{\numberline {3.1}{\ignorespaces Detalhes T\IeC {\'e}cnicos da Linguagem}}{9}{table.3.1}}
\newlabel{tab:tabela2}{{3.1}{9}{Tabela}{table.3.1}{}}
\@writefile{toc}{\contentsline {section}{\numberline {3.2}Discuss\IeC {\~a}o}{11}{section.3.2}}
\@writefile{toc}{\contentsline {chapter}{4~Implementa\IeC {\c c}\IeC {\~a}o Funcional}{12}{CHAPTER.4}}
\@writefile{lof}{\addvspace {10\p@ }}
\@writefile{lot}{\addvspace {10\p@ }}
\@writefile{lol}{\addvspace {10\p@ }}
\newlabel{funcional}{{4}{12}{Implementação Funcional}{CHAPTER.4}{}}
\@writefile{toc}{\contentsline {section}{\numberline {4.1}Estruturas de Dados}{12}{section.4.1}}
\@writefile{toc}{\contentsline {section}{\numberline {4.2}Implementa\IeC {\c c}\IeC {\~a}o das Regras}{12}{section.4.2}}
\@writefile{toc}{\contentsline {section}{\numberline {4.3}Requisitos Funcionais}{12}{section.4.3}}
\@writefile{toc}{\contentsline {subsection}{\numberline {4.3.1}Elementos Imut\IeC {\'a}veis e Fun\IeC {\c c}\IeC {\~o}es Puras}{12}{subsection.4.3.1}}
\@writefile{toc}{\contentsline {subsection}{\numberline {4.3.2}Fun\IeC {\c c}\IeC {\~o}es An\IeC {\^o}nimas}{13}{subsection.4.3.2}}
\@writefile{toc}{\contentsline {subsection}{\numberline {4.3.3}Currying}{14}{subsection.4.3.3}}
\@writefile{toc}{\contentsline {subsection}{\numberline {4.3.4}Pattern Matching}{14}{subsection.4.3.4}}
\@writefile{toc}{\contentsline {subsection}{\numberline {4.3.5}Fun\IeC {\c c}\IeC {\~o}es de ordem superior implementadas}{14}{subsection.4.3.5}}
\@writefile{toc}{\contentsline {subsection}{\numberline {4.3.6}Uso de fun\IeC {\c c}\IeC {\~o}es de ordem superior prontas}{14}{subsection.4.3.6}}
\@writefile{toc}{\contentsline {subsection}{\numberline {4.3.7}Fun\IeC {\c c}\IeC {\~o}es como elementos de primeira de ordem}{15}{subsection.4.3.7}}
\@writefile{toc}{\contentsline {subsection}{\numberline {4.3.8}Itera\IeC {\c c}\IeC {\~a}o via recurs\IeC {\~a}o em fun\IeC {\c c}\IeC {\~a}o de alta ordem}{15}{subsection.4.3.8}}
\@writefile{toc}{\contentsline {chapter}{5~Implementa\IeC {\c c}\IeC {\~a}o Orientada a Objetos}{16}{CHAPTER.5}}
\@writefile{lof}{\addvspace {10\p@ }}
\@writefile{lot}{\addvspace {10\p@ }}
\@writefile{lol}{\addvspace {10\p@ }}
\newlabel{oo}{{5}{16}{Implementação Orientada a Objetos}{CHAPTER.5}{}}
\@writefile{toc}{\contentsline {section}{\numberline {5.1}Requisitos de Orienta\IeC {\c c}\IeC {\~a}o a Objetos}{16}{section.5.1}}
\@writefile{toc}{\contentsline {subsection}{\numberline {5.1.1}Defini\IeC {\c c}\IeC {\~a}o das Classes e Construtores}{16}{subsection.5.1.1}}
\@writefile{toc}{\contentsline {subsection}{\numberline {5.1.2}Destrutores}{17}{subsection.5.1.2}}
\@writefile{toc}{\contentsline {subsection}{\numberline {5.1.3}Namespaces}{17}{subsection.5.1.3}}
\@writefile{toc}{\contentsline {subsection}{\numberline {5.1.4}Encapsulamento}{18}{subsection.5.1.4}}
\@writefile{toc}{\contentsline {subsection}{\numberline {5.1.5}Heran\IeC {\c c}a M\IeC {\'u}ltipla}{18}{subsection.5.1.5}}
\@writefile{toc}{\contentsline {subsection}{\numberline {5.1.6}Polimorfismo por Inclus\IeC {\~a}o}{19}{subsection.5.1.6}}
\@writefile{toc}{\contentsline {subsection}{\numberline {5.1.7}Polimorfismo Param\IeC {\'e}trico}{19}{subsection.5.1.7}}
\@writefile{toc}{\contentsline {subsection}{\numberline {5.1.8}Polimorfismo por Sobrecarga}{20}{subsection.5.1.8}}
\@writefile{toc}{\contentsline {subsection}{\numberline {5.1.9}Delegates}{20}{subsection.5.1.9}}
\@writefile{toc}{\contentsline {chapter}{6~Recursos Extras Utilizados}{21}{CHAPTER.6}}
\@writefile{lof}{\addvspace {10\p@ }}
\@writefile{lot}{\addvspace {10\p@ }}
\@writefile{lol}{\addvspace {10\p@ }}
\newlabel{extra}{{6}{21}{Recursos Extras Utilizados}{CHAPTER.6}{}}
\bibstyle{abntex2-alf}
\bibdata{abntex2-options,biblio}
\@writefile{toc}{\contentsline {chapter}{7~Conclus\IeC {\~a}o}{22}{CHAPTER.7}}
\@writefile{lof}{\addvspace {10\p@ }}
\@writefile{lot}{\addvspace {10\p@ }}
\@writefile{lol}{\addvspace {10\p@ }}
\newlabel{conclusao}{{7}{22}{Conclusão}{CHAPTER.7}{}}
\bibcite{frascolla1994}{Frascolla 1994}
\bibciteEXPL{frascolla1994}{Frascolla}
\bibciteIMPL{frascolla1994}{FRASCOLLA}
\bibciteYEAR{frascolla1994}{1994}
\bibcite{witt1921}{Santos 2008}
\bibciteEXPL{witt1921}{Santos}
\bibciteIMPL{witt1921}{SANTOS}
\bibciteYEAR{witt1921}{2008}
\@writefile{toc}{\contentsline {chapter}{\xspace  {}Refer{\^e}ncias}{23}{schapter.2}}
\@writefile{lof}{\addvspace {10\p@ }}
\@writefile{lot}{\addvspace {10\p@ }}
\newlabel{ocaml}{{7}{23}{Conclusão}{schapter.2}{}}
\newlabel{FLACH e GUARESE (2018)}{{7}{23}{Conclusão}{schapter.2}{}}
\newlabel{overloadPoly}{{7}{23}{Conclusão}{schapter.2}{}}
\newlabel{LastPage}{{}{23}{}{page.23}{}}
\xdef\lastpage@lastpage{23}
\xdef\lastpage@lastpageHy{23}
\ttl@finishall
